{
    "fields": [
        {
            "name": "commercial_registration",
            "type": "string"
        },
        {
            "name": "vat_number",
            "type": "string"
        },
        {
            "name": "location",
            "type": "string"
        },
        {
            "name": "user_id",
            "type": "bigint#unsigned"
        },
        {
            "name": "category_id",
            "type": "bigint#unsigned"
        },
        {
            "name": "reward_program_points",
            "type": "bigint#unsigned"
        },
        {
            "name": "prepaid_card_id",
            "type": "bigint#unsigned"
        }
    ],
    "foreign_keys": [
        {
            "column": "user_id",
            "references": "id",
            "on": "users",
            "onDelete": "cascade"
        },
        {
            "column": "category_id",
            "references": "id",
            "on": "customer_categories",
            "onDelete": "cascade"
        },
        {
            "column": "reward_points_id",
            "references": "id",
            "on": "reward_points",
            "onDelete": "cascade"
        },
        {
            "column": "prepaid_card_id",
            "references": "id",
            "on": "users",
            "onDelete": "cascade"
        }
    ],
    "relationships": [
        {
            "name": "user",
            "type": "belongsTo",
            "class": "App\\User"
        },
        {
            "name": "category",
            "type": "belongsTo",
            "class": "App\\CustomerCategory"
        },
        {
            "name": "rewardPoints",
            "type": "hasOne",
            "class": "App\\User"
        },
        {
            "name": "prepaidCard",
            "type": "hasOne",
            "class": "App\\PrepaidCard"
        }
    ],
    "validations": [
        {
            "field": "title",
            "rules": "required|max:10"
        }
    ]
}
